temp_T-14,rain_T-14,temp_T-13,rain_T-13,temp_T-12,rain_T-12,temp_T-11,rain_T-11,temp_T-10,rain_T-10,temp_T-9,rain_T-9,temp_T-8,rain_T-8,temp_T-7,rain_T-7,temp_T-6,rain_T-6,temp_T-5,rain_T-5,temp_T-4,rain_T-4,temp_T-3,rain_T-3,temp_T-2,rain_T-2,temp_T-1,rain_T-1,temp_T0,rain_T0,date,weight,response,reporter
0.0,0.0,0.0,0.0,0.0,0.0,0.0,0.0,0.0,0.0,0.0,0.0,0.0,0.0,0.0,0.0,0.0,0.0,0.0,0.0,0.0,0.0,0.0,0.0,0.0,0.0,0.0,0.0,0.0,0.0,0000-00-00,0.0,0.0,anon
15.54166666666667,0.77,15.454166666666667,1.28,11.908333333333333,1.77,13.079166666666667,0.25,13.4625,0.03,13.845833333333337,0.15,13.024999999999999,1.17,16.691666666666666,0.0,12.324999999999996,1.73,9.395833333333334,0.01,8.164705882352942,0.0,12.358823529411765,0.0,16.34583333333333,0.12,15.987499999999999,0.68,14.215789473684211,0.38,2014-05-08,1,2.0,chris
